<svg width="1920" height="859" viewBox="0 0 1920 859" fill="none" xmlns="http://www.w3.org/2000/svg">
<g opacity="0.05" clip-path="url(#clip0_1024_1226)">
<path d="M1728.53 217.122C1780.53 165.108 1864.85 165.108 1916.85 217.122C1968.86 269.136 1968.86 353.467 1916.85 405.481C1864.85 457.495 1780.53 457.495 1728.53 405.481C1676.53 353.467 1676.53 269.136 1728.53 217.122Z" stroke="white" stroke-width="2" stroke-miterlimit="10"/>
<path d="M1641.07 166.778C1693.08 114.764 1777.39 114.764 1829.39 166.778C1881.4 218.792 1881.4 303.123 1829.39 355.137C1777.39 407.151 1693.08 407.151 1641.07 355.137C1589.07 303.123 1589.07 218.792 1641.07 166.778Z" stroke="white" stroke-width="2" stroke-miterlimit="10"/>
<path d="M1641.07 267.454C1693.08 215.44 1777.39 215.44 1829.39 267.454C1881.4 319.468 1881.4 403.799 1829.39 455.813C1777.39 507.827 1693.08 507.827 1641.07 455.813C1589.07 403.799 1589.07 319.468 1641.07 267.454Z" stroke="white" stroke-width="2" stroke-miterlimit="10"/>
<path d="M1728.53 -149.949C1780.53 -201.962 1864.84 -201.962 1916.85 -149.949C1968.85 -97.9347 1968.85 -13.6035 1916.85 38.4104C1864.84 90.4243 1780.53 90.4243 1728.53 38.4104C1676.52 -13.6035 1676.52 -97.9346 1728.53 -149.949Z" stroke="white" stroke-width="2" stroke-miterlimit="10"/>
<path d="M1641.07 -200.285C1693.08 -252.298 1777.39 -252.298 1829.39 -200.285C1881.4 -148.271 1881.4 -63.9395 1829.39 -11.9256C1777.39 40.0883 1693.08 40.0883 1641.07 -11.9256C1589.07 -63.9395 1589.07 -148.271 1641.07 -200.285Z" stroke="white" stroke-width="2" stroke-miterlimit="10"/>
<path d="M1641.07 -99.6127C1693.08 -151.627 1777.39 -151.627 1829.39 -99.6127C1881.4 -47.5988 1881.4 36.7324 1829.39 88.7463C1777.39 140.76 1693.08 140.76 1641.07 88.7463C1589.07 36.7324 1589.07 -47.5988 1641.07 -99.6127Z" stroke="white" stroke-width="2" stroke-miterlimit="10"/>
<path d="M1926.94 33.5827C1978.94 -18.4312 2063.25 -18.4312 2115.26 33.5827C2167.26 85.5965 2167.26 169.928 2115.26 221.942C2063.25 273.956 1978.94 273.956 1926.94 221.942C1874.93 169.928 1874.93 85.5966 1926.94 33.5827Z" stroke="white" stroke-width="2" stroke-miterlimit="10"/>
<path d="M2014.37 83.9264C2066.38 31.9125 2150.69 31.9125 2202.7 83.9264C2254.7 135.94 2254.7 220.271 2202.7 272.285C2150.69 324.299 2066.38 324.299 2014.37 272.285C1962.37 220.271 1962.37 135.94 2014.37 83.9264Z" stroke="white" stroke-width="2" stroke-miterlimit="10"/>
<path d="M2014.38 -16.7572C2066.39 -68.7711 2150.7 -68.7711 2202.7 -16.7572C2254.71 35.2567 2254.71 119.588 2202.7 171.602C2150.7 223.616 2066.39 223.616 2014.38 171.602C1962.38 119.588 1962.38 35.2567 2014.38 -16.7572Z" stroke="white" stroke-width="2" stroke-miterlimit="10"/>
<path d="M1960.89 -283.136C2012.9 -335.15 2097.21 -335.15 2149.22 -283.136C2201.22 -231.122 2201.22 -146.791 2149.22 -94.7771C2097.21 -42.7632 2012.9 -42.7632 1960.89 -94.7771C1908.89 -146.791 1908.89 -231.122 1960.89 -283.136Z" stroke="white" stroke-width="2" stroke-miterlimit="10"/>
<path d="M730.062 -55.7771C730.062 -129.337 789.681 -188.968 863.226 -188.968C936.771 -188.968 996.391 -129.337 996.391 -55.7771C996.391 17.7823 936.771 77.4141 863.226 77.4141C789.681 77.4141 730.062 17.7824 730.062 -55.7771Z" stroke="white" stroke-width="2" stroke-miterlimit="10"/>
<path d="M642.605 -106.117C642.605 -179.676 702.224 -239.308 775.769 -239.308C849.314 -239.308 908.934 -179.676 908.934 -106.117C908.934 -32.5575 849.314 27.0742 775.769 27.0742C702.224 27.0742 642.605 -32.5575 642.605 -106.117Z" stroke="white" stroke-width="2" stroke-miterlimit="10"/>
<path d="M642.605 -5.43724C642.605 -78.9967 702.224 -138.628 775.769 -138.628C849.314 -138.628 908.934 -78.9967 908.934 -5.43726C908.934 68.1222 849.314 127.754 775.769 127.754C702.224 127.754 642.605 68.1222 642.605 -5.43724Z" stroke="white" stroke-width="2" stroke-miterlimit="10"/>
<path d="M1248.28 -55.7771C1248.28 -129.337 1307.9 -188.968 1381.44 -188.968C1454.99 -188.968 1514.61 -129.337 1514.61 -55.7771C1514.61 17.7823 1454.99 77.4141 1381.44 77.4141C1307.9 77.4141 1248.28 17.7824 1248.28 -55.7771Z" stroke="white" stroke-width="2" stroke-miterlimit="10"/>
<path d="M1374.75 -99.6009C1426.75 -151.615 1511.06 -151.615 1563.07 -99.6009C1615.07 -47.5871 1615.07 36.7441 1563.07 88.758C1511.06 140.772 1426.75 140.772 1374.75 88.758C1322.74 36.7441 1322.74 -47.587 1374.75 -99.6009Z" stroke="white" stroke-width="2" stroke-miterlimit="10"/>
<path d="M1374.74 -200.281C1426.75 -252.295 1511.06 -252.295 1563.06 -200.281C1615.07 -148.267 1615.07 -63.9356 1563.06 -11.9217C1511.06 40.0922 1426.75 40.0922 1374.74 -11.9217C1322.74 -63.9355 1322.74 -148.267 1374.74 -200.281Z" stroke="white" stroke-width="2" stroke-miterlimit="10"/>
<path d="M1248.28 311.293C1248.28 237.734 1307.9 178.102 1381.44 178.102C1454.99 178.102 1514.61 237.734 1514.61 311.293C1514.61 384.853 1454.99 444.484 1381.44 444.484C1307.9 444.484 1248.28 384.853 1248.28 311.293Z" stroke="white" stroke-width="2" stroke-miterlimit="10"/>
<path d="M1374.75 267.462C1426.75 215.448 1511.06 215.448 1563.07 267.462C1615.07 319.475 1615.07 403.807 1563.07 455.821C1511.06 507.834 1426.75 507.834 1374.75 455.821C1322.74 403.807 1322.74 319.475 1374.75 267.462Z" stroke="white" stroke-width="2" stroke-miterlimit="10"/>
<path d="M1374.74 166.786C1426.75 114.772 1511.06 114.772 1563.06 166.786C1615.07 218.8 1615.07 303.131 1563.06 355.145C1511.06 407.159 1426.75 407.159 1374.74 355.145C1322.74 303.131 1322.74 218.8 1374.74 166.786Z" stroke="white" stroke-width="2" stroke-miterlimit="10"/>
<path d="M1049.88 127.75C1049.88 54.1908 1109.5 -5.44091 1183.05 -5.44091C1256.59 -5.44092 1316.21 54.1908 1316.21 127.75C1316.21 201.31 1256.59 260.941 1183.05 260.941C1109.5 260.941 1049.88 201.31 1049.88 127.75Z" stroke="white" stroke-width="2" stroke-miterlimit="10"/>
<path d="M962.425 77.4143C962.425 3.85487 1022.04 -55.7768 1095.59 -55.7768C1169.13 -55.7769 1228.75 3.85486 1228.75 77.4143C1228.75 150.974 1169.13 210.605 1095.59 210.605C1022.04 210.605 962.425 150.974 962.425 77.4143Z" stroke="white" stroke-width="2" stroke-miterlimit="10"/>
<path d="M962.425 178.102C962.425 104.542 1022.04 44.9107 1095.59 44.9107C1169.13 44.9106 1228.75 104.542 1228.75 178.102C1228.75 251.661 1169.13 311.293 1095.59 311.293C1022.04 311.293 962.425 251.661 962.425 178.102Z" stroke="white" stroke-width="2" stroke-miterlimit="10"/>
</g>
<g opacity="0.05" clip-path="url(#clip1_1024_1226)">
<path d="M-51.3016 425.037C-67.6958 353.336 -22.8582 281.933 48.8461 265.553C120.55 249.173 191.968 294.02 208.363 365.721C224.757 437.422 179.919 508.825 108.215 525.205C36.5105 541.585 -34.9074 496.738 -51.3016 425.037Z" stroke="white" stroke-width="2" stroke-miterlimit="10"/>
<path d="M-140.446 472.33C-156.84 400.629 -112.003 329.226 -40.2985 312.846C31.4058 296.466 102.824 341.313 119.218 413.014C135.612 484.715 90.7745 556.118 19.0702 572.498C-52.6341 588.878 -124.052 544.031 -140.446 472.33Z" stroke="white" stroke-width="2" stroke-miterlimit="10"/>
<path d="M-55.1846 525.871C-71.5788 454.17 -26.7411 382.767 44.9632 366.387C116.668 350.007 188.086 394.854 204.48 466.555C220.874 538.256 176.036 609.659 104.332 626.039C32.6276 642.419 -38.7904 597.572 -55.1846 525.871Z" stroke="white" stroke-width="2" stroke-miterlimit="10"/>
<path d="M-101.224 159.408C-117.618 87.7074 -72.7801 16.3038 -1.07577 -0.0760761C70.6285 -16.4559 142.046 28.3908 158.441 100.092C174.835 171.793 129.997 243.196 58.2929 259.576C-13.4114 275.956 -84.8294 231.109 -101.224 159.408Z" stroke="white" stroke-width="2" stroke-miterlimit="10"/>
<path d="M-12.0908 112.133C-28.4849 40.432 16.3527 -30.9716 88.057 -47.3515C159.761 -63.7313 231.179 -18.8846 247.573 52.8164C263.968 124.517 219.13 195.921 147.426 212.301C75.7214 228.681 4.30345 183.834 -12.0908 112.133Z" stroke="white" stroke-width="2" stroke-miterlimit="10"/>
<path d="M-97.3525 58.5822C-113.747 -13.1188 -68.909 -84.5224 2.79532 -100.902C74.4996 -117.282 145.918 -72.4354 162.312 -0.734376C178.706 70.9666 133.868 142.37 62.164 158.75C-9.54033 175.13 -80.9583 130.283 -97.3525 58.5822Z" stroke="white" stroke-width="2" stroke-miterlimit="10"/>
<path d="M-226.944 881.834C-289.239 842.716 -308.034 760.514 -268.924 698.231C-229.813 635.948 -147.608 617.169 -85.3119 656.287C-23.0162 695.405 -4.22097 777.608 -43.3315 839.891C-82.442 902.174 -164.648 920.953 -226.944 881.834Z" stroke="white" stroke-width="2" stroke-miterlimit="10"/>
<path d="M-196.81 751.422C-213.204 679.721 -168.366 608.317 -96.6617 591.938C-24.9574 575.558 46.4605 620.404 62.8547 692.105C79.2489 763.806 34.4112 835.21 -37.2931 851.59C-108.997 867.97 -180.415 823.123 -196.81 751.422Z" stroke="white" stroke-width="2" stroke-miterlimit="10"/>
<path d="M-282.071 697.887C-298.465 626.186 -253.628 554.782 -181.923 538.402C-110.219 522.023 -38.8012 566.869 -22.407 638.57C-6.01278 710.271 -50.8505 781.675 -122.555 798.055C-194.259 814.435 -265.677 769.588 -282.071 697.887Z" stroke="white" stroke-width="2" stroke-miterlimit="10"/>
</g>
<defs>
<clipPath id="clip0_1024_1226">
<rect width="550" height="1310" fill="white" transform="matrix(-4.37114e-08 -1 -1 4.37114e-08 1920 550)"/>
</clipPath>
<clipPath id="clip1_1024_1226">
<rect width="270" height="859" fill="white"/>
</clipPath>
</defs>
</svg>
