<svg width="157" height="272" viewBox="0 0 157 272" fill="none" xmlns="http://www.w3.org/2000/svg">
<path opacity="0.6" d="M21 271C95.5584 271 156 210.558 156 136C156 61.4416 95.5584 1 21 1C-53.5585 1 -114 61.4416 -114 136C-114 210.558 -53.5585 271 21 271Z" stroke="white" stroke-width="2" stroke-miterlimit="10"/>
</svg>
